<?xml version="1.0" encoding="UTF-8" standalone="no"?>
<!-- Created with Inkscape (http://www.inkscape.org/) -->

<svg
   xmlns:dc="http://purl.org/dc/elements/1.1/"
   xmlns:cc="http://creativecommons.org/ns#"
   xmlns:rdf="http://www.w3.org/1999/02/22-rdf-syntax-ns#"
   xmlns:svg="http://www.w3.org/2000/svg"
   xmlns="http://www.w3.org/2000/svg"
   xmlns:sodipodi="http://sodipodi.sourceforge.net/DTD/sodipodi-0.dtd"
   xmlns:inkscape="http://www.inkscape.org/namespaces/inkscape"
   width="210mm"
   height="297mm"
   viewBox="0 0 744.09448819 1052.3622047"
   id="svg6412"
   version="1.1"
   inkscape:version="0.91 r13725"
   sodipodi:docname="g3.svg">
  <defs
     id="defs6414" />
  <sodipodi:namedview
     id="base"
     pagecolor="#ffffff"
     bordercolor="#666666"
     borderopacity="1.0"
     inkscape:pageopacity="0.0"
     inkscape:pageshadow="2"
     inkscape:zoom="0.24748737"
     inkscape:cx="166.37655"
     inkscape:cy="538.93548"
     inkscape:document-units="px"
     inkscape:current-layer="layer1"
     showgrid="false"
     inkscape:window-width="1301"
     inkscape:window-height="744"
     inkscape:window-x="65"
     inkscape:window-y="24"
     inkscape:window-maximized="1" />
  <metadata
     id="metadata6417">
    <rdf:RDF>
      <cc:Work
         rdf:about="">
        <dc:format>image/svg+xml</dc:format>
        <dc:type
           rdf:resource="http://purl.org/dc/dcmitype/StillImage" />
        <dc:title />
      </cc:Work>
    </rdf:RDF>
  </metadata>
  <g
     inkscape:label="Layer 1"
     inkscape:groupmode="layer"
     id="layer1">
    <text
       xml:space="preserve"
       style="font-style:normal;font-weight:normal;font-size:70px;line-height:125%;font-family:'Print Bold OT';letter-spacing:0px;word-spacing:0px;fill:#000000;fill-opacity:1;stroke:#000000;stroke-width:1px;stroke-linecap:butt;stroke-linejoin:miter;stroke-opacity:1;-inkscape-font-specification:'Print Bold OT';font-stretch:normal;font-variant:normal;"
       x="205.71429"
       y="200.93362"
       id="text6960"
       sodipodi:linespacing="125%"
       inkscape:export-filename="/home/callum/source_working/heygo/labels/thirstyt.png"
       inkscape:export-xdpi="196"
       inkscape:export-ydpi="196"><tspan
         sodipodi:role="line"
         id="tspan6962"
         x="205.71429"
         y="200.93362">Thirsty</tspan></text>
    <text
       xml:space="preserve"
       style="font-style:normal;font-weight:normal;font-size:70px;line-height:125%;font-family:'Print Bold OT';letter-spacing:0px;word-spacing:0px;fill:#000000;fill-opacity:1;stroke:#000000;stroke-width:1px;stroke-linecap:butt;stroke-linejoin:miter;stroke-opacity:1;-inkscape-font-specification:'Print Bold OT';font-stretch:normal;font-variant:normal;"
       x="222.85715"
       y="306.64792"
       id="text6964"
       sodipodi:linespacing="125%"
       inkscape:export-filename="/home/callum/source_working/heygo/labels/hott.png"
       inkscape:export-xdpi="196"
       inkscape:export-ydpi="196"><tspan
         sodipodi:role="line"
         id="tspan6966"
         x="222.85715"
         y="306.64792">Hot</tspan></text>
    <text
       xml:space="preserve"
       style="font-style:normal;font-weight:normal;font-size:70px;line-height:125%;font-family:'Print Bold OT';letter-spacing:0px;word-spacing:0px;fill:#000000;fill-opacity:1;stroke:#000000;stroke-width:1px;stroke-linecap:butt;stroke-linejoin:miter;stroke-opacity:1;-inkscape-font-specification:'Print Bold OT';font-stretch:normal;font-variant:normal;"
       x="260"
       y="440.93362"
       id="text6968"
       sodipodi:linespacing="125%"
       inkscape:export-filename="/home/callum/source_working/heygo/labels/excited.png"
       inkscape:export-xdpi="196"
       inkscape:export-ydpi="196"><tspan
         sodipodi:role="line"
         id="tspan6970"
         x="260"
         y="440.93362">Excited</tspan></text>
    <text
       xml:space="preserve"
       style="font-style:normal;font-weight:normal;font-size:70px;line-height:125%;font-family:'Print Bold OT';letter-spacing:0px;word-spacing:0px;fill:#000000;fill-opacity:1;stroke:#000000;stroke-width:1px;stroke-linecap:butt;stroke-linejoin:miter;stroke-opacity:1;-inkscape-font-specification:'Print Bold OT';font-stretch:normal;font-variant:normal;"
       x="285.71429"
       y="535.21936"
       id="text6972"
       sodipodi:linespacing="125%"
       inkscape:export-filename="/home/callum/source_working/heygo/labels/coldt.png"
       inkscape:export-xdpi="196"
       inkscape:export-ydpi="196"><tspan
         sodipodi:role="line"
         id="tspan6974"
         x="285.71429"
         y="535.21936">Cold</tspan></text>
    <text
       xml:space="preserve"
       style="font-style:normal;font-weight:normal;font-size:70px;line-height:125%;font-family:'Print Bold OT';letter-spacing:0px;word-spacing:0px;fill:#000000;fill-opacity:1;stroke:#000000;stroke-width:1px;stroke-linecap:butt;stroke-linejoin:miter;stroke-opacity:1;-inkscape-font-specification:'Print Bold OT';font-stretch:normal;font-variant:normal;"
       x="297.14285"
       y="675.21936"
       id="text6976"
       sodipodi:linespacing="125%"
       inkscape:export-filename="/home/callum/source_working/heygo/labels/okt.png"
       inkscape:export-xdpi="196"
       inkscape:export-ydpi="196"><tspan
         sodipodi:role="line"
         id="tspan6978"
         x="297.14285"
         y="675.21936">OK</tspan></text>
    <text
       xml:space="preserve"
       style="font-style:normal;font-weight:normal;font-size:70px;line-height:125%;font-family:'Print Bold OT';letter-spacing:0px;word-spacing:0px;fill:#000000;fill-opacity:1;stroke:#000000;stroke-width:1px;stroke-linecap:butt;stroke-linejoin:miter;stroke-opacity:1;-inkscape-font-specification:'Print Bold OT';font-stretch:normal;font-variant:normal;"
       x="308.57144"
       y="706.64795"
       id="text6980"
       sodipodi:linespacing="125%"
       inkscape:export-filename="/home/callum/source_working/heygo/labels/sickt.png"
       inkscape:export-xdpi="196"
       inkscape:export-ydpi="196"><tspan
         sodipodi:role="line"
         id="tspan6982"
         x="308.57144"
         y="706.64795">Sick</tspan></text>
    <text
       xml:space="preserve"
       style="font-style:normal;font-weight:normal;font-size:70px;line-height:125%;font-family:'Print Bold OT';letter-spacing:0px;word-spacing:0px;fill:#000000;fill-opacity:1;stroke:#000000;stroke-width:1px;stroke-linecap:butt;stroke-linejoin:miter;stroke-opacity:1;-inkscape-font-specification:'Print Bold OT';font-stretch:normal;font-variant:normal;"
       x="354.28571"
       y="835.21936"
       id="text6984"
       sodipodi:linespacing="125%"
       inkscape:export-filename="/home/callum/source_working/heygo/labels/boredt.png"
       inkscape:export-xdpi="196"
       inkscape:export-ydpi="196"><tspan
         sodipodi:role="line"
         id="tspan6986"
         x="354.28571"
         y="835.21936">Bored</tspan></text>
    <text
       xml:space="preserve"
       style="font-style:normal;font-weight:normal;font-size:70px;line-height:125%;font-family:'Print Bold OT';letter-spacing:0px;word-spacing:0px;fill:#000000;fill-opacity:1;stroke:#000000;stroke-width:1px;stroke-linecap:butt;stroke-linejoin:miter;stroke-opacity:1;-inkscape-font-specification:'Print Bold OT';font-stretch:normal;font-variant:normal;"
       x="354.28571"
       y="900.93365"
       id="text6988"
       sodipodi:linespacing="125%"
       inkscape:export-filename="/home/callum/source_working/heygo/labels/giraffest.png"
       inkscape:export-xdpi="196"
       inkscape:export-ydpi="196"><tspan
         sodipodi:role="line"
         id="tspan6990"
         x="354.28571"
         y="900.93365">Giraffes</tspan></text>
    <text
       xml:space="preserve"
       style="font-style:normal;font-weight:normal;font-size:70px;line-height:125%;font-family:'Print Bold OT';letter-spacing:0px;word-spacing:0px;fill:#000000;fill-opacity:1;stroke:#000000;stroke-width:1px;stroke-linecap:butt;stroke-linejoin:miter;stroke-opacity:1;-inkscape-font-specification:'Print Bold OT';font-stretch:normal;font-variant:normal;"
       x="-537.14288"
       y="-76.209221"
       id="text6992"
       sodipodi:linespacing="125%"
       inkscape:export-filename="/home/callum/source_working/heygo/labels/zebrast.png"
       inkscape:export-xdpi="196"
       inkscape:export-ydpi="196"><tspan
         sodipodi:role="line"
         id="tspan6994"
         x="-537.14288"
         y="-76.209221">Zebras</tspan></text>
    <text
       xml:space="preserve"
       style="font-style:normal;font-weight:normal;font-size:70px;line-height:125%;font-family:'Print Bold OT';letter-spacing:0px;word-spacing:0px;fill:#000000;fill-opacity:1;stroke:#000000;stroke-width:1px;stroke-linecap:butt;stroke-linejoin:miter;stroke-opacity:1;-inkscape-font-specification:'Print Bold OT';font-stretch:normal;font-variant:normal;"
       x="-525.71429"
       y="158.07649"
       id="text6996"
       sodipodi:linespacing="125%"
       inkscape:export-filename="/home/callum/source_working/heygo/labels/frogst.png"
       inkscape:export-xdpi="196"
       inkscape:export-ydpi="196"><tspan
         sodipodi:role="line"
         id="tspan6998"
         x="-525.71429"
         y="158.07649">Frogs</tspan></text>
    <text
       xml:space="preserve"
       style="font-style:normal;font-weight:normal;font-size:70px;line-height:125%;font-family:'Print Bold OT';letter-spacing:0px;word-spacing:0px;fill:#000000;fill-opacity:1;stroke:#000000;stroke-width:1px;stroke-linecap:butt;stroke-linejoin:miter;stroke-opacity:1;-inkscape-font-specification:'Print Bold OT';font-stretch:normal;font-variant:normal;"
       x="-520"
       y="240.93362"
       id="text7000"
       sodipodi:linespacing="125%"
       inkscape:export-filename="/home/callum/source_working/heygo/labels/sheept.png"
       inkscape:export-xdpi="196"
       inkscape:export-ydpi="196"><tspan
         sodipodi:role="line"
         id="tspan7002"
         x="-520"
         y="240.93362">Sheep</tspan></text>
    <text
       xml:space="preserve"
       style="font-style:normal;font-weight:normal;font-size:70px;line-height:125%;font-family:sans-serif;letter-spacing:0px;word-spacing:0px;fill:#000000;fill-opacity:1;stroke:none;stroke-width:1px;stroke-linecap:butt;stroke-linejoin:miter;stroke-opacity:1"
       x="-511.42856"
       y="249.50507"
       id="text7004"
       sodipodi:linespacing="125%"><tspan
         sodipodi:role="line"
         id="tspan7006"
         x="-511.42856"
         y="249.50507" /></text>
    <text
       xml:space="preserve"
       style="font-style:normal;font-weight:normal;font-size:70px;line-height:125%;font-family:'Print Bold OT';letter-spacing:0px;word-spacing:0px;fill:#000000;fill-opacity:1;stroke:#000000;stroke-width:1px;stroke-linecap:butt;stroke-linejoin:miter;stroke-opacity:1;-inkscape-font-specification:'Print Bold OT';font-stretch:normal;font-variant:normal;"
       x="-460"
       y="472.36221"
       id="text7008"
       sodipodi:linespacing="125%"
       inkscape:export-filename="/home/callum/source_working/heygo/labels/hippost.png"
       inkscape:export-xdpi="196"
       inkscape:export-ydpi="196"><tspan
         sodipodi:role="line"
         id="tspan7010"
         x="-460"
         y="472.36221">Hippos</tspan></text>
    <text
       xml:space="preserve"
       style="font-style:normal;font-weight:normal;font-size:70px;line-height:125%;font-family:'Print Bold OT';letter-spacing:0px;word-spacing:0px;fill:#000000;fill-opacity:1;stroke:#000000;stroke-width:1px;stroke-linecap:butt;stroke-linejoin:miter;stroke-opacity:1;-inkscape-font-specification:'Print Bold OT';font-stretch:normal;font-variant:normal;"
       x="-460"
       y="520.93365"
       id="text7012"
       sodipodi:linespacing="125%"
       inkscape:export-filename="/home/callum/source_working/heygo/labels/sharkst.png"
       inkscape:export-xdpi="196"
       inkscape:export-ydpi="196"><tspan
         sodipodi:role="line"
         id="tspan7014"
         x="-460"
         y="520.93365">Sharks</tspan></text>
    <text
       xml:space="preserve"
       style="font-style:normal;font-weight:normal;font-size:70px;line-height:125%;font-family:'Print Bold OT';letter-spacing:0px;word-spacing:0px;fill:#000000;fill-opacity:1;stroke:#000000;stroke-width:1px;stroke-linecap:butt;stroke-linejoin:miter;stroke-opacity:1;-inkscape-font-specification:'Print Bold OT';font-stretch:normal;font-variant:normal;"
       x="-448.57144"
       y="586.64795"
       id="text7016"
       sodipodi:linespacing="125%"
       inkscape:export-filename="/home/callum/source_working/heygo/labels/whalest.png"
       inkscape:export-xdpi="196"
       inkscape:export-ydpi="196"><tspan
         sodipodi:role="line"
         id="tspan7018"
         x="-448.57144"
         y="586.64795">Whales</tspan></text>
    <text
       xml:space="preserve"
       style="font-style:normal;font-weight:normal;font-size:70px;line-height:125%;font-family:'Print Bold OT';letter-spacing:0px;word-spacing:0px;fill:#000000;fill-opacity:1;stroke:#000000;stroke-width:1px;stroke-linecap:butt;stroke-linejoin:miter;stroke-opacity:1;-inkscape-font-specification:'Print Bold OT';font-stretch:normal;font-variant:normal;"
       x="-451.42856"
       y="858.07648"
       id="text7020"
       sodipodi:linespacing="125%"
       inkscape:export-filename="/home/callum/source_working/heygo/labels/crocodilest.png"
       inkscape:export-xdpi="196"
       inkscape:export-ydpi="196"><tspan
         sodipodi:role="line"
         id="tspan7022"
         x="-451.42856"
         y="858.07648">Crocodiles</tspan></text>
    <text
       xml:space="preserve"
       style="font-style:normal;font-weight:normal;font-size:70px;line-height:125%;font-family:'Print Bold OT';letter-spacing:0px;word-spacing:0px;fill:#000000;fill-opacity:1;stroke:#000000;stroke-width:1px;stroke-linecap:butt;stroke-linejoin:miter;stroke-opacity:1;-inkscape-font-specification:'Print Bold OT';font-stretch:normal;font-variant:normal;"
       x="-451.42856"
       y="958.07648"
       id="text7024"
       sodipodi:linespacing="125%"
       inkscape:export-filename="/home/callum/source_working/heygo/labels/octopusest.png"
       inkscape:export-xdpi="196"
       inkscape:export-ydpi="196"><tspan
         sodipodi:role="line"
         id="tspan7026"
         x="-451.42856"
         y="958.07648">Octopuses</tspan></text>
    <text
       xml:space="preserve"
       style="font-style:normal;font-weight:normal;font-size:70px;line-height:125%;font-family:'Print Bold OT';letter-spacing:0px;word-spacing:0px;fill:#000000;fill-opacity:1;stroke:#000000;stroke-width:1px;stroke-linecap:butt;stroke-linejoin:miter;stroke-opacity:1;-inkscape-font-specification:'Print Bold OT';font-stretch:normal;font-variant:normal;"
       x="-408.57144"
       y="1006.6479"
       id="text7028"
       sodipodi:linespacing="125%"
       inkscape:export-filename="/home/callum/source_working/heygo/labels/bugst.png"
       inkscape:export-xdpi="196"
       inkscape:export-ydpi="196"><tspan
         sodipodi:role="line"
         id="tspan7030"
         x="-408.57144"
         y="1006.6479">Bugs</tspan></text>
    <text
       xml:space="preserve"
       style="font-style:normal;font-weight:normal;font-size:70px;line-height:125%;font-family:'Print Bold OT';letter-spacing:0px;word-spacing:0px;fill:#000000;fill-opacity:1;stroke:#000000;stroke-width:1px;stroke-linecap:butt;stroke-linejoin:miter;stroke-opacity:1;-inkscape-font-specification:'Print Bold OT';font-stretch:normal;font-variant:normal;"
       x="-228.57143"
       y="1223.7908"
       id="text7032"
       sodipodi:linespacing="125%"
       inkscape:export-filename="/home/callum/source_working/heygo/labels/cherriest.png"
       inkscape:export-xdpi="196"
       inkscape:export-ydpi="196"><tspan
         sodipodi:role="line"
         id="tspan7034"
         x="-228.57143"
         y="1223.7908">Cherries</tspan></text>
    <text
       xml:space="preserve"
       style="font-style:normal;font-weight:normal;font-size:70px;line-height:125%;font-family:'Print Bold OT';letter-spacing:0px;word-spacing:0px;fill:#000000;fill-opacity:1;stroke:#000000;stroke-width:1px;stroke-linecap:butt;stroke-linejoin:miter;stroke-opacity:1;-inkscape-font-specification:'Print Bold OT';font-stretch:normal;font-variant:normal;"
       x="225.71429"
       y="1152.3622"
       id="text7036"
       sodipodi:linespacing="125%"
       inkscape:export-filename="/home/callum/source_working/heygo/labels/watermelont.png"
       inkscape:export-xdpi="196"
       inkscape:export-ydpi="196"><tspan
         sodipodi:role="line"
         id="tspan7038"
         x="225.71429"
         y="1152.3622">Watermelon</tspan></text>
    <text
       xml:space="preserve"
       style="font-style:normal;font-weight:normal;font-size:70px;line-height:125%;font-family:'Print Bold OT';letter-spacing:0px;word-spacing:0px;fill:#000000;fill-opacity:1;stroke:#000000;stroke-width:1px;stroke-linecap:butt;stroke-linejoin:miter;stroke-opacity:1;-inkscape-font-specification:'Print Bold OT';font-stretch:normal;font-variant:normal;"
       x="300"
       y="1226.6479"
       id="text7040"
       sodipodi:linespacing="125%"
       inkscape:export-filename="/home/callum/source_working/heygo/labels/pearst.png"
       inkscape:export-xdpi="196"
       inkscape:export-ydpi="196"><tspan
         sodipodi:role="line"
         id="tspan7042"
         x="300"
         y="1226.6479">Pears</tspan></text>
    <text
       xml:space="preserve"
       style="font-style:normal;font-weight:normal;font-size:70px;line-height:125%;font-family:'Print Bold OT';letter-spacing:0px;word-spacing:0px;fill:#000000;fill-opacity:1;stroke:#000000;stroke-width:1px;stroke-linecap:butt;stroke-linejoin:miter;stroke-opacity:1;-inkscape-font-specification:'Print Bold OT';font-stretch:normal;font-variant:normal;"
       x="582.85712"
       y="1272.3622"
       id="text7044"
       sodipodi:linespacing="125%"
       inkscape:export-filename="/home/callum/source_working/heygo/labels/cornt.png"
       inkscape:export-xdpi="196"
       inkscape:export-ydpi="196"><tspan
         sodipodi:role="line"
         id="tspan7046"
         x="582.85712"
         y="1272.3622">Corn</tspan></text>
    <text
       xml:space="preserve"
       style="font-style:normal;font-weight:normal;font-size:70px;line-height:125%;font-family:'Print Bold OT';letter-spacing:0px;word-spacing:0px;fill:#000000;fill-opacity:1;stroke:#000000;stroke-width:1px;stroke-linecap:butt;stroke-linejoin:miter;stroke-opacity:1;-inkscape-font-specification:'Print Bold OT';font-stretch:normal;font-variant:normal;"
       x="-71.428574"
       y="1355.2194"
       id="text7048"
       sodipodi:linespacing="125%"
       inkscape:export-filename="/home/callum/source_working/heygo/labels/radishest.png"
       inkscape:export-xdpi="196"
       inkscape:export-ydpi="196"><tspan
         sodipodi:role="line"
         id="tspan7050"
         x="-71.428574"
         y="1355.2194">Radishes</tspan></text>
    <text
       xml:space="preserve"
       style="font-style:normal;font-weight:normal;font-size:70px;line-height:125%;font-family:'Print Bold OT';letter-spacing:0px;word-spacing:0px;fill:#000000;fill-opacity:1;stroke:#000000;stroke-width:1px;stroke-linecap:butt;stroke-linejoin:miter;stroke-opacity:1;-inkscape-font-specification:'Print Bold OT';font-stretch:normal;font-variant:normal;"
       x="134.28571"
       y="-67.637794"
       id="text7052"
       sodipodi:linespacing="125%"
       inkscape:export-filename="/home/callum/source_working/heygo/labels/mushroomst.png"
       inkscape:export-xdpi="196"
       inkscape:export-ydpi="196"><tspan
         sodipodi:role="line"
         id="tspan7054"
         x="134.28571"
         y="-67.637794">Mushrooms</tspan></text>
    <text
       xml:space="preserve"
       style="font-style:normal;font-weight:normal;font-size:70px;line-height:125%;font-family:'Print Bold OT';letter-spacing:0px;word-spacing:0px;fill:#000000;fill-opacity:1;stroke:#000000;stroke-width:1px;stroke-linecap:butt;stroke-linejoin:miter;stroke-opacity:1;-inkscape-font-specification:'Print Bold OT';font-stretch:normal;font-variant:normal;"
       x="160"
       y="38.076488"
       id="text7056"
       sodipodi:linespacing="125%"
       inkscape:export-filename="/home/callum/source_working/heygo/labels/celeryt.png"
       inkscape:export-xdpi="196"
       inkscape:export-ydpi="196"><tspan
         sodipodi:role="line"
         id="tspan7058"
         x="160"
         y="38.076488">Celery</tspan></text>
    <text
       xml:space="preserve"
       style="font-style:normal;font-weight:normal;font-size:70px;line-height:125%;font-family:'Print Bold OT';letter-spacing:0px;word-spacing:0px;fill:#000000;fill-opacity:1;stroke:#000000;stroke-width:1px;stroke-linecap:butt;stroke-linejoin:miter;stroke-opacity:1;-inkscape-font-specification:'Print Bold OT';font-stretch:normal;font-variant:normal;"
       x="-80"
       y="-256.20923"
       id="text7060"
       sodipodi:linespacing="125%"
       inkscape:export-filename="/home/callum/source_working/heygo/labels/icecreamt.png"
       inkscape:export-xdpi="196"
       inkscape:export-ydpi="196"><tspan
         sodipodi:role="line"
         id="tspan7062"
         x="-80"
         y="-256.20923">Ice cream</tspan></text>
    <text
       xml:space="preserve"
       style="font-style:normal;font-variant:normal;font-weight:normal;font-stretch:normal;font-size:70px;line-height:125%;font-family:'Print Bold OT';-inkscape-font-specification:'Print Bold OT';letter-spacing:0px;word-spacing:0px;fill:#000000;fill-opacity:1;stroke:#000000;stroke-width:1px;stroke-linecap:butt;stroke-linejoin:miter;stroke-opacity:1"
       x="1383.9132"
       y="-270.41083"
       id="text7064"
       sodipodi:linespacing="125%"
       inkscape:export-filename="/home/callum/source_working/heygo/labels/pizzat.png"
       inkscape:export-xdpi="196"
       inkscape:export-ydpi="196"><tspan
         sodipodi:role="line"
         id="tspan7066"
         x="1383.9132"
         y="-270.41083">Pizza</tspan></text>
    <text
       xml:space="preserve"
       style="font-style:normal;font-weight:normal;font-size:70px;line-height:125%;font-family:'Print Bold OT';letter-spacing:0px;word-spacing:0px;fill:#000000;fill-opacity:1;stroke:#000000;stroke-width:1px;stroke-linecap:butt;stroke-linejoin:miter;stroke-opacity:1;-inkscape-font-specification:'Print Bold OT';font-stretch:normal;font-variant:normal;"
       x="-11.428571"
       y="-173.35208"
       id="text7068"
       sodipodi:linespacing="125%"
       inkscape:export-filename="/home/callum/source_working/heygo/labels/spaghetti.png"
       inkscape:export-xdpi="196"
       inkscape:export-ydpi="196"><tspan
         sodipodi:role="line"
         id="tspan7070"
         x="-11.428571"
         y="-173.35208">Spaghetti</tspan></text>
    <text
       xml:space="preserve"
       style="font-style:normal;font-weight:normal;font-size:70px;line-height:125%;font-family:'Print Bold OT';letter-spacing:0px;word-spacing:0px;fill:#000000;fill-opacity:1;stroke:#000000;stroke-width:1px;stroke-linecap:butt;stroke-linejoin:miter;stroke-opacity:1;-inkscape-font-specification:'Print Bold OT';font-stretch:normal;font-variant:normal;"
       x="668.57141"
       y="-104.78065"
       id="text7072"
       sodipodi:linespacing="125%"
       inkscape:export-filename="/home/callum/source_working/heygo/labels/sandwichest.png"
       inkscape:export-xdpi="196"
       inkscape:export-ydpi="196"><tspan
         sodipodi:role="line"
         id="tspan7074"
         x="668.57141"
         y="-104.78065">Sandwiches</tspan></text>
    <text
       xml:space="preserve"
       style="font-style:normal;font-weight:normal;font-size:70px;line-height:125%;font-family:'Print Bold OT';letter-spacing:0px;word-spacing:0px;fill:#000000;fill-opacity:1;stroke:#000000;stroke-width:1px;stroke-linecap:butt;stroke-linejoin:miter;stroke-opacity:1;-inkscape-font-specification:'Print Bold OT';font-stretch:normal;font-variant:normal;"
       x="725.71429"
       y="195.21935"
       id="text7076"
       sodipodi:linespacing="125%"
       inkscape:export-filename="/home/callum/source_working/heygo/labels/curryandrice.png"
       inkscape:export-xdpi="196"
       inkscape:export-ydpi="196"><tspan
         sodipodi:role="line"
         id="tspan7078"
         x="725.71429"
         y="195.21935">Curry and rice</tspan></text>
    <text
       xml:space="preserve"
       style="font-style:normal;font-weight:normal;font-size:70px;line-height:125%;font-family:'Print Bold OT';letter-spacing:0px;word-spacing:0px;fill:#000000;fill-opacity:1;stroke:#000000;stroke-width:1px;stroke-linecap:butt;stroke-linejoin:miter;stroke-opacity:1;-inkscape-font-specification:'Print Bold OT';font-stretch:normal;font-variant:normal;"
       x="814.28571"
       y="406.64792"
       id="text7080"
       sodipodi:linespacing="125%"
       inkscape:export-filename="/home/callum/source_working/heygo/labels/milkt.png"
       inkscape:export-xdpi="196"
       inkscape:export-ydpi="196"><tspan
         sodipodi:role="line"
         id="tspan7082"
         x="814.28571"
         y="406.64792">Milk</tspan></text>
    <text
       xml:space="preserve"
       style="font-style:normal;font-weight:normal;font-size:70px;line-height:125%;font-family:'Print Bold OT';letter-spacing:0px;word-spacing:0px;fill:#000000;fill-opacity:1;stroke:#000000;stroke-width:1px;stroke-linecap:butt;stroke-linejoin:miter;stroke-opacity:1;-inkscape-font-specification:'Print Bold OT';font-stretch:normal;font-variant:normal;"
       x="782.85712"
       y="558.07648"
       id="text7084"
       sodipodi:linespacing="125%"
       inkscape:export-filename="/home/callum/source_working/heygo/labels/orangejuicet.png"
       inkscape:export-xdpi="196"
       inkscape:export-ydpi="196"><tspan
         sodipodi:role="line"
         id="tspan7086"
         x="782.85712"
         y="558.07648">Orange juice</tspan></text>
    <text
       xml:space="preserve"
       style="font-style:normal;font-weight:normal;font-size:70px;line-height:125%;font-family:'Print Bold OT';letter-spacing:0px;word-spacing:0px;fill:#000000;fill-opacity:1;stroke:#000000;stroke-width:1px;stroke-linecap:butt;stroke-linejoin:miter;stroke-opacity:1;-inkscape-font-specification:'Print Bold OT';font-stretch:normal;font-variant:normal;"
       x="702.85712"
       y="700.93365"
       id="text7088"
       sodipodi:linespacing="125%"
       inkscape:export-filename="/home/callum/source_working/heygo/labels/saladt.png"
       inkscape:export-xdpi="196"
       inkscape:export-ydpi="196"><tspan
         sodipodi:role="line"
         id="tspan7090"
         x="702.85712"
         y="700.93365">Salad</tspan></text>
    <text
       xml:space="preserve"
       style="font-style:normal;font-weight:normal;font-size:70px;line-height:125%;font-family:'Print Bold OT';letter-spacing:0px;word-spacing:0px;fill:#000000;fill-opacity:1;stroke:#000000;stroke-width:1px;stroke-linecap:butt;stroke-linejoin:miter;stroke-opacity:1;-inkscape-font-specification:'Print Bold OT';font-stretch:normal;font-variant:normal;"
       x="771.42859"
       y="858.07648"
       id="text7092"
       sodipodi:linespacing="125%"
       inkscape:export-filename="/home/callum/source_working/heygo/labels/cheeset.png"
       inkscape:export-xdpi="196"
       inkscape:export-ydpi="196"><tspan
         sodipodi:role="line"
         id="tspan7094"
         x="771.42859"
         y="858.07648">Cheese</tspan></text>
    <text
       xml:space="preserve"
       style="font-style:normal;font-weight:normal;font-size:70px;line-height:125%;font-family:'Print Bold OT';letter-spacing:0px;word-spacing:0px;fill:#000000;fill-opacity:1;stroke:#000000;stroke-width:1px;stroke-linecap:butt;stroke-linejoin:miter;stroke-opacity:1;-inkscape-font-specification:'Print Bold OT';font-stretch:normal;font-variant:normal;"
       x="814.28571"
       y="929.50507"
       id="text7096"
       sodipodi:linespacing="125%"
       inkscape:export-filename="/home/callum/source_working/heygo/labels/cookiest.png"
       inkscape:export-xdpi="196"
       inkscape:export-ydpi="196"><tspan
         sodipodi:role="line"
         id="tspan7098"
         x="814.28571"
         y="929.50507">Cookies</tspan></text>
    <text
       xml:space="preserve"
       style="font-style:normal;font-weight:normal;font-size:70px;line-height:125%;font-family:'Print Bold OT';letter-spacing:0px;word-spacing:0px;fill:#000000;fill-opacity:1;stroke:#000000;stroke-width:1px;stroke-linecap:butt;stroke-linejoin:miter;stroke-opacity:1;-inkscape-font-specification:'Print Bold OT';font-stretch:normal;font-variant:normal;"
       x="802.85712"
       y="978.07648"
       id="text7100"
       sodipodi:linespacing="125%"
       inkscape:export-filename="/home/callum/source_working/heygo/labels/eatt.png"
       inkscape:export-xdpi="196"
       inkscape:export-ydpi="196"><tspan
         sodipodi:role="line"
         id="tspan7102"
         x="802.85712"
         y="978.07648">Eat</tspan></text>
    <text
       xml:space="preserve"
       style="font-style:normal;font-weight:normal;font-size:70px;line-height:125%;font-family:'Print Bold OT';letter-spacing:0px;word-spacing:0px;fill:#000000;fill-opacity:1;stroke:#000000;stroke-width:1px;stroke-linecap:butt;stroke-linejoin:miter;stroke-opacity:1;-inkscape-font-specification:'Print Bold OT';font-stretch:normal;font-variant:normal;"
       x="851.42859"
       y="1072.3622"
       id="text7104"
       sodipodi:linespacing="125%"
       inkscape:export-filename="/home/callum/source_working/heygo/labels/drinkt.png"
       inkscape:export-xdpi="196"
       inkscape:export-ydpi="196"><tspan
         sodipodi:role="line"
         id="tspan7106"
         x="851.42859"
         y="1072.3622">Drink</tspan></text>
    <text
       xml:space="preserve"
       style="font-style:normal;font-weight:normal;font-size:70px;line-height:125%;font-family:'Print Bold OT';letter-spacing:0px;word-spacing:0px;fill:#000000;fill-opacity:1;stroke:#000000;stroke-width:1px;stroke-linecap:butt;stroke-linejoin:miter;stroke-opacity:1;-inkscape-font-specification:'Print Bold OT';font-stretch:normal;font-variant:normal;"
       x="865.71429"
       y="1118.0765"
       id="text7108"
       sodipodi:linespacing="125%"
       inkscape:export-filename="/home/callum/source_working/heygo/labels/sleept.png"
       inkscape:export-xdpi="196"
       inkscape:export-ydpi="196"><tspan
         sodipodi:role="line"
         id="tspan7110"
         x="865.71429"
         y="1118.0765">Sleep</tspan></text>
    <text
       xml:space="preserve"
       style="font-style:normal;font-weight:normal;font-size:70px;line-height:125%;font-family:'Print Bold OT';letter-spacing:0px;word-spacing:0px;fill:#000000;fill-opacity:1;stroke:#000000;stroke-width:1px;stroke-linecap:butt;stroke-linejoin:miter;stroke-opacity:1;-inkscape-font-specification:'Print Bold OT';font-stretch:normal;font-variant:normal;"
       x="865.71429"
       y="1226.6479"
       id="text7112"
       sodipodi:linespacing="125%"
       inkscape:export-filename="/home/callum/source_working/heygo/labels/playt.png"
       inkscape:export-xdpi="196"
       inkscape:export-ydpi="196"><tspan
         sodipodi:role="line"
         id="tspan7114"
         x="865.71429"
         y="1226.6479">Play</tspan></text>
    <text
       xml:space="preserve"
       style="font-style:normal;font-weight:normal;font-size:70px;line-height:125%;font-family:'Print Bold OT';letter-spacing:0px;word-spacing:0px;fill:#000000;fill-opacity:1;stroke:#000000;stroke-width:1px;stroke-linecap:butt;stroke-linejoin:miter;stroke-opacity:1;-inkscape-font-specification:'Print Bold OT';font-stretch:normal;font-variant:normal;"
       x="-117.14286"
       y="169.50507"
       id="text7116"
       sodipodi:linespacing="125%"
       inkscape:export-filename="/home/callum/source_working/heygo/labels/got.png"
       inkscape:export-xdpi="196"
       inkscape:export-ydpi="196"><tspan
         sodipodi:role="line"
         id="tspan7118"
         x="-117.14286"
         y="169.50507">Go</tspan></text>
    <text
       xml:space="preserve"
       style="font-style:normal;font-weight:normal;font-size:70px;line-height:125%;font-family:'Print Bold OT';letter-spacing:0px;word-spacing:0px;fill:#000000;fill-opacity:1;stroke:#000000;stroke-width:1px;stroke-linecap:butt;stroke-linejoin:miter;stroke-opacity:1;-inkscape-font-specification:'Print Bold OT';font-stretch:normal;font-variant:normal;"
       x="-77.14286"
       y="280.93362"
       id="text7120"
       sodipodi:linespacing="125%"
       inkscape:export-filename="/home/callum/source_working/heygo/labels/studyt.png"
       inkscape:export-xdpi="196"
       inkscape:export-ydpi="196"><tspan
         sodipodi:role="line"
         id="tspan7122"
         x="-77.14286"
         y="280.93362">Study</tspan></text>
    <text
       xml:space="preserve"
       style="font-style:normal;font-weight:normal;font-size:70px;line-height:125%;font-family:'Print Bold OT';letter-spacing:0px;word-spacing:0px;fill:#000000;fill-opacity:1;stroke:#000000;stroke-width:1px;stroke-linecap:butt;stroke-linejoin:miter;stroke-opacity:1;-inkscape-font-specification:'Print Bold OT';font-stretch:normal;font-variant:normal;"
       x="-74.285713"
       y="420.93362"
       id="text7124"
       sodipodi:linespacing="125%"
       inkscape:export-filename="/home/callum/source_working/heygo/labels/januaryt.png"
       inkscape:export-xdpi="196"
       inkscape:export-ydpi="196"><tspan
         sodipodi:role="line"
         id="tspan7126"
         x="-74.285713"
         y="420.93362">January</tspan></text>
    <text
       xml:space="preserve"
       style="font-style:normal;font-weight:normal;font-size:70px;line-height:125%;font-family:'Print Bold OT';letter-spacing:0px;word-spacing:0px;fill:#000000;fill-opacity:1;stroke:#000000;stroke-width:1px;stroke-linecap:butt;stroke-linejoin:miter;stroke-opacity:1;-inkscape-font-specification:'Print Bold OT';font-stretch:normal;font-variant:normal;"
       x="-117.14286"
       y="512.36218"
       id="text7128"
       sodipodi:linespacing="125%"
       inkscape:export-filename="/home/callum/source_working/heygo/labels/february.png"
       inkscape:export-xdpi="196"
       inkscape:export-ydpi="196"><tspan
         sodipodi:role="line"
         id="tspan7130"
         x="-117.14286"
         y="512.36218">February</tspan></text>
    <text
       xml:space="preserve"
       style="font-style:normal;font-weight:normal;font-size:70px;line-height:125%;font-family:'Print Bold OT';letter-spacing:0px;word-spacing:0px;fill:#000000;fill-opacity:1;stroke:#000000;stroke-width:1px;stroke-linecap:butt;stroke-linejoin:miter;stroke-opacity:1;-inkscape-font-specification:'Print Bold OT';font-stretch:normal;font-variant:normal;"
       x="-65.714287"
       y="623.79077"
       id="text7132"
       sodipodi:linespacing="125%"
       inkscape:export-filename="/home/callum/source_working/heygo/labels/marcht.png"
       inkscape:export-xdpi="196"
       inkscape:export-ydpi="196"><tspan
         sodipodi:role="line"
         id="tspan7134"
         x="-65.714287"
         y="623.79077">March</tspan></text>
    <text
       xml:space="preserve"
       style="font-style:normal;font-weight:normal;font-size:70px;line-height:125%;font-family:'Print Bold OT';letter-spacing:0px;word-spacing:0px;fill:#000000;fill-opacity:1;stroke:#000000;stroke-width:1px;stroke-linecap:butt;stroke-linejoin:miter;stroke-opacity:1;-inkscape-font-specification:'Print Bold OT';font-stretch:normal;font-variant:normal;"
       x="-45.714287"
       y="669.50507"
       id="text7136"
       sodipodi:linespacing="125%"
       inkscape:export-filename="/home/callum/source_working/heygo/labels/aprilt.png"
       inkscape:export-xdpi="196"
       inkscape:export-ydpi="196"><tspan
         sodipodi:role="line"
         id="tspan7138"
         x="-45.714287"
         y="669.50507">April</tspan></text>
    <text
       xml:space="preserve"
       style="font-style:normal;font-weight:normal;font-size:70px;line-height:125%;font-family:'Print Bold OT';letter-spacing:0px;word-spacing:0px;fill:#000000;fill-opacity:1;stroke:#000000;stroke-width:1px;stroke-linecap:butt;stroke-linejoin:miter;stroke-opacity:1;-inkscape-font-specification:'Print Bold OT';font-stretch:normal;font-variant:normal;"
       x="-40"
       y="755.21936"
       id="text7140"
       sodipodi:linespacing="125%"
       inkscape:export-filename="/home/callum/source_working/heygo/labels/mayt.png"
       inkscape:export-xdpi="196"
       inkscape:export-ydpi="196"><tspan
         sodipodi:role="line"
         id="tspan7142"
         x="-40"
         y="755.21936">May</tspan></text>
    <text
       xml:space="preserve"
       style="font-style:normal;font-weight:normal;font-size:70px;line-height:125%;font-family:'Print Bold OT';letter-spacing:0px;word-spacing:0px;fill:#000000;fill-opacity:1;stroke:#000000;stroke-width:1px;stroke-linecap:butt;stroke-linejoin:miter;stroke-opacity:1;-inkscape-font-specification:'Print Bold OT';font-stretch:normal;font-variant:normal;"
       x="-14.285714"
       y="838.07648"
       id="text7144"
       sodipodi:linespacing="125%"
       inkscape:export-filename="/home/callum/source_working/heygo/labels/junet.png"
       inkscape:export-xdpi="196"
       inkscape:export-ydpi="196"><tspan
         sodipodi:role="line"
         id="tspan7146"
         x="-14.285714"
         y="838.07648">June</tspan></text>
    <text
       xml:space="preserve"
       style="font-style:normal;font-weight:normal;font-size:70px;line-height:125%;font-family:'Print Bold OT';letter-spacing:0px;word-spacing:0px;fill:#000000;fill-opacity:1;stroke:#000000;stroke-width:1px;stroke-linecap:butt;stroke-linejoin:miter;stroke-opacity:1;-inkscape-font-specification:'Print Bold OT';font-stretch:normal;font-variant:normal;"
       x="14.285714"
       y="938.07648"
       id="text7148"
       sodipodi:linespacing="125%"
       inkscape:export-filename="/home/callum/source_working/heygo/labels/julyt.png"
       inkscape:export-xdpi="196"
       inkscape:export-ydpi="196"><tspan
         sodipodi:role="line"
         id="tspan7150"
         x="14.285714"
         y="938.07648">July</tspan></text>
    <text
       xml:space="preserve"
       style="font-style:normal;font-weight:normal;font-size:70px;line-height:125%;font-family:'Print Bold OT';letter-spacing:0px;word-spacing:0px;fill:#000000;fill-opacity:1;stroke:#000000;stroke-width:1px;stroke-linecap:butt;stroke-linejoin:miter;stroke-opacity:1;-inkscape-font-specification:'Print Bold OT';font-stretch:normal;font-variant:normal;"
       x="34.285713"
       y="1018.0765"
       id="text7152"
       sodipodi:linespacing="125%"
       inkscape:export-filename="/home/callum/source_working/heygo/labels/augustt.png"
       inkscape:export-xdpi="196"
       inkscape:export-ydpi="196"><tspan
         sodipodi:role="line"
         id="tspan7154"
         x="34.285713"
         y="1018.0765">August</tspan></text>
    <text
       xml:space="preserve"
       style="font-style:normal;font-weight:normal;font-size:70px;line-height:125%;font-family:'Print Bold OT';letter-spacing:0px;word-spacing:0px;fill:#000000;fill-opacity:1;stroke:#000000;stroke-width:1px;stroke-linecap:butt;stroke-linejoin:miter;stroke-opacity:1;-inkscape-font-specification:'Print Bold OT';font-stretch:normal;font-variant:normal;"
       x="-660"
       y="683.79077"
       id="text7156"
       sodipodi:linespacing="125%"
       inkscape:export-filename="/home/callum/source_working/heygo/labels/septembert.png"
       inkscape:export-xdpi="196"
       inkscape:export-ydpi="196"><tspan
         sodipodi:role="line"
         id="tspan7158"
         x="-660"
         y="683.79077">September</tspan></text>
    <text
       xml:space="preserve"
       style="font-style:normal;font-weight:normal;font-size:70px;line-height:125%;font-family:'Print Bold OT';letter-spacing:0px;word-spacing:0px;fill:#000000;fill-opacity:1;stroke:#000000;stroke-width:1px;stroke-linecap:butt;stroke-linejoin:miter;stroke-opacity:1;-inkscape-font-specification:'Print Bold OT';font-stretch:normal;font-variant:normal;"
       x="-677.14288"
       y="743.79077"
       id="text7160"
       sodipodi:linespacing="125%"
       inkscape:export-filename="/home/callum/source_working/heygo/labels/octobert.png"
       inkscape:export-xdpi="196"
       inkscape:export-ydpi="196"><tspan
         sodipodi:role="line"
         id="tspan7162"
         x="-677.14288"
         y="743.79077">October</tspan></text>
    <text
       xml:space="preserve"
       style="font-style:normal;font-weight:normal;font-size:70px;line-height:125%;font-family:'Print Bold OT';letter-spacing:0px;word-spacing:0px;fill:#000000;fill-opacity:1;stroke:#000000;stroke-width:1px;stroke-linecap:butt;stroke-linejoin:miter;stroke-opacity:1;-inkscape-font-specification:'Print Bold OT';font-stretch:normal;font-variant:normal;"
       x="-677.14288"
       y="803.79077"
       id="text7164"
       sodipodi:linespacing="125%"
       inkscape:export-filename="/home/callum/source_working/heygo/labels/novembert.png"
       inkscape:export-xdpi="196"
       inkscape:export-ydpi="196"><tspan
         sodipodi:role="line"
         id="tspan7166"
         x="-677.14288"
         y="803.79077">November</tspan></text>
    <text
       xml:space="preserve"
       style="font-style:normal;font-weight:normal;font-size:70px;line-height:125%;font-family:'Print Bold OT';letter-spacing:0px;word-spacing:0px;fill:#000000;fill-opacity:1;stroke:#000000;stroke-width:1px;stroke-linecap:butt;stroke-linejoin:miter;stroke-opacity:1;-inkscape-font-specification:'Print Bold OT';font-stretch:normal;font-variant:normal;"
       x="-680"
       y="895.21936"
       id="text7168"
       sodipodi:linespacing="125%"
       inkscape:export-filename="/home/callum/source_working/heygo/labels/decembert.png"
       inkscape:export-xdpi="196"
       inkscape:export-ydpi="196"><tspan
         sodipodi:role="line"
         id="tspan7170"
         x="-680"
         y="895.21936">December</tspan></text>
    <text
       xml:space="preserve"
       style="font-style:normal;font-weight:normal;font-size:70px;line-height:125%;font-family:'Print Bold OT';letter-spacing:0px;word-spacing:0px;fill:#000000;fill-opacity:1;stroke:#000000;stroke-width:1px;stroke-linecap:butt;stroke-linejoin:miter;stroke-opacity:1;-inkscape-font-specification:'Print Bold OT';font-stretch:normal;font-variant:normal;"
       x="-602.85712"
       y="1192.3622"
       id="text7172"
       sodipodi:linespacing="125%"
       inkscape:export-filename="/home/callum/source_working/heygo/labels/armt.png"
       inkscape:export-xdpi="196"
       inkscape:export-ydpi="196"><tspan
         sodipodi:role="line"
         id="tspan7174"
         x="-602.85712"
         y="1192.3622">Arm</tspan></text>
    <text
       xml:space="preserve"
       style="font-style:normal;font-weight:normal;font-size:70px;line-height:125%;font-family:'Print Bold OT';letter-spacing:0px;word-spacing:0px;fill:#000000;fill-opacity:1;stroke:#000000;stroke-width:1px;stroke-linecap:butt;stroke-linejoin:miter;stroke-opacity:1;-inkscape-font-specification:'Print Bold OT';font-stretch:normal;font-variant:normal;"
       x="-628.57141"
       y="1063.7908"
       id="text7176"
       sodipodi:linespacing="125%"
       inkscape:export-filename="/home/callum/source_working/heygo/labels/backt.png"
       inkscape:export-xdpi="196"
       inkscape:export-ydpi="196"><tspan
         sodipodi:role="line"
         id="tspan7178"
         x="-628.57141"
         y="1063.7908">Back</tspan></text>
    <text
       xml:space="preserve"
       style="font-style:normal;font-weight:normal;font-size:70px;line-height:125%;font-family:'Print Bold OT';letter-spacing:0px;word-spacing:0px;fill:#000000;fill-opacity:1;stroke:#000000;stroke-width:1px;stroke-linecap:butt;stroke-linejoin:miter;stroke-opacity:1;-inkscape-font-specification:'Print Bold OT';font-stretch:normal;font-variant:normal;"
       x="-528.57141"
       y="1283.7908"
       id="text7180"
       sodipodi:linespacing="125%"
       inkscape:export-filename="/home/callum/source_working/heygo/labels/elbowt.png"
       inkscape:export-xdpi="196"
       inkscape:export-ydpi="196"><tspan
         sodipodi:role="line"
         id="tspan7182"
         x="-528.57141"
         y="1283.7908">Elbow</tspan></text>
    <text
       xml:space="preserve"
       style="font-style:normal;font-weight:normal;font-size:70px;line-height:125%;font-family:'Print Bold OT';letter-spacing:0px;word-spacing:0px;fill:#000000;fill-opacity:1;stroke:#000000;stroke-width:1px;stroke-linecap:butt;stroke-linejoin:miter;stroke-opacity:1;-inkscape-font-specification:'Print Bold OT';font-stretch:normal;font-variant:normal;"
       x="-760"
       y="478.07648"
       id="text7184"
       sodipodi:linespacing="125%"
       inkscape:export-filename="/home/callum/source_working/heygo/labels/foot.png"
       inkscape:export-xdpi="196"
       inkscape:export-ydpi="196"><tspan
         sodipodi:role="line"
         id="tspan7186"
         x="-760"
         y="478.07648">Foot</tspan></text>
    <text
       xml:space="preserve"
       style="font-style:normal;font-weight:normal;font-size:70px;line-height:125%;font-family:'Print Bold OT';letter-spacing:0px;word-spacing:0px;fill:#000000;fill-opacity:1;stroke:#000000;stroke-width:1px;stroke-linecap:butt;stroke-linejoin:miter;stroke-opacity:1;-inkscape-font-specification:'Print Bold OT';font-stretch:normal;font-variant:normal;"
       x="-711.42859"
       y="323.79077"
       id="text7188"
       sodipodi:linespacing="125%"
       inkscape:export-filename="/home/callum/source_working/heygo/labels/hairt.png"
       inkscape:export-xdpi="196"
       inkscape:export-ydpi="196"><tspan
         sodipodi:role="line"
         id="tspan7190"
         x="-711.42859"
         y="323.79077">Hair</tspan></text>
    <text
       xml:space="preserve"
       style="font-style:normal;font-weight:normal;font-size:70px;line-height:125%;font-family:'Print Bold OT';letter-spacing:0px;word-spacing:0px;fill:#000000;fill-opacity:1;stroke:#000000;stroke-width:1px;stroke-linecap:butt;stroke-linejoin:miter;stroke-opacity:1;-inkscape-font-specification:'Print Bold OT';font-stretch:normal;font-variant:normal;"
       x="-700"
       y="12.362205"
       id="text7192"
       sodipodi:linespacing="125%"
       inkscape:export-filename="/home/callum/source_working/heygo/labels/handt.png"
       inkscape:export-xdpi="196"
       inkscape:export-ydpi="196"><tspan
         sodipodi:role="line"
         id="tspan7194"
         x="-700"
         y="12.362205">Hand</tspan></text>
    <text
       xml:space="preserve"
       style="font-style:normal;font-weight:normal;font-size:70px;line-height:125%;font-family:'Print Bold OT';letter-spacing:0px;word-spacing:0px;fill:#000000;fill-opacity:1;stroke:#000000;stroke-width:1px;stroke-linecap:butt;stroke-linejoin:miter;stroke-opacity:1;-inkscape-font-specification:'Print Bold OT';font-stretch:normal;font-variant:normal;"
       x="-417.14285"
       y="15.219348"
       id="text7196"
       sodipodi:linespacing="125%"
       inkscape:export-filename="/home/callum/source_working/heygo/labels/neckt.png"
       inkscape:export-xdpi="196"
       inkscape:export-ydpi="196"><tspan
         sodipodi:role="line"
         id="tspan7198"
         x="-417.14285"
         y="15.219348">Neck</tspan></text>
    <text
       xml:space="preserve"
       style="font-style:normal;font-weight:normal;font-size:70px;line-height:125%;font-family:'Print Bold OT';letter-spacing:0px;word-spacing:0px;fill:#000000;fill-opacity:1;stroke:#000000;stroke-width:1px;stroke-linecap:butt;stroke-linejoin:miter;stroke-opacity:1;-inkscape-font-specification:'Print Bold OT';font-stretch:normal;font-variant:normal;"
       x="-162.85715"
       y="-81.923508"
       id="text7200"
       sodipodi:linespacing="125%"
       inkscape:export-filename="/home/callum/source_working/heygo/labels/legt.png"
       inkscape:export-xdpi="196"
       inkscape:export-ydpi="196"><tspan
         sodipodi:role="line"
         id="tspan7202"
         x="-162.85715"
         y="-81.923508">Leg</tspan></text>
    <text
       xml:space="preserve"
       style="font-style:normal;font-weight:normal;font-size:70px;line-height:125%;font-family:'Print Bold OT';letter-spacing:0px;word-spacing:0px;fill:#000000;fill-opacity:1;stroke:#000000;stroke-width:1px;stroke-linecap:butt;stroke-linejoin:miter;stroke-opacity:1;-inkscape-font-specification:'Print Bold OT';font-stretch:normal;font-variant:normal;"
       x="-380"
       y="-230.49493"
       id="text7204"
       sodipodi:linespacing="125%"
       inkscape:export-filename="/home/callum/source_working/heygo/labels/stomacht.png"
       inkscape:export-xdpi="196"
       inkscape:export-ydpi="196"><tspan
         sodipodi:role="line"
         id="tspan7206"
         x="-380"
         y="-230.49493">Stomach</tspan></text>
    <text
       xml:space="preserve"
       style="font-style:normal;font-weight:normal;font-size:70px;line-height:125%;font-family:'Print Bold OT';letter-spacing:0px;word-spacing:0px;fill:#000000;fill-opacity:1;stroke:#000000;stroke-width:1px;stroke-linecap:butt;stroke-linejoin:miter;stroke-opacity:1;-inkscape-font-specification:'Print Bold OT';font-stretch:normal;font-variant:normal;"
       x="1244.5079"
       y="490.71738"
       id="text10085"
       sodipodi:linespacing="125%"
       inkscape:export-filename="/home/callum/source_working/heygo/labels/kangaroost.png"
       inkscape:export-xdpi="196"
       inkscape:export-ydpi="196"><tspan
         sodipodi:role="line"
         id="tspan10087"
         x="1244.5079"
         y="490.71738">Kangaroos</tspan></text>
    <text
       xml:space="preserve"
       style="font-style:normal;font-weight:normal;font-size:70px;line-height:125%;font-family:'Print Bold OT';letter-spacing:0px;word-spacing:0px;fill:#000000;fill-opacity:1;stroke:#000000;stroke-width:1px;stroke-linecap:butt;stroke-linejoin:miter;stroke-opacity:1;-inkscape-font-specification:'Print Bold OT';font-stretch:normal;font-variant:normal;"
       x="1187.9395"
       y="611.93573"
       id="text10089"
       sodipodi:linespacing="125%"
       inkscape:export-filename="/home/callum/source_working/heygo/labels/brocollit.png"
       inkscape:export-xdpi="196"
       inkscape:export-ydpi="196"><tspan
         sodipodi:role="line"
         id="tspan10091"
         x="1187.9395"
         y="611.93573">Brocolli</tspan></text>
    <text
       xml:space="preserve"
       style="font-style:normal;font-weight:normal;font-size:70px;line-height:125%;font-family:'Print Bold OT';letter-spacing:0px;word-spacing:0px;fill:#000000;fill-opacity:1;stroke:#000000;stroke-width:1px;stroke-linecap:butt;stroke-linejoin:miter;stroke-opacity:1;-inkscape-font-specification:'Print Bold OT';font-stretch:normal;font-variant:normal;"
       x="1200.0612"
       y="716.99158"
       id="text10093"
       sodipodi:linespacing="125%"
       inkscape:export-filename="/home/callum/source_working/heygo/labels/cauliflowert.png"
       inkscape:export-xdpi="196"
       inkscape:export-ydpi="196"><tspan
         sodipodi:role="line"
         id="tspan10095"
         x="1200.0612"
         y="716.99158">Cauliflower</tspan></text>
    <text
       xml:space="preserve"
       style="font-style:normal;font-weight:normal;font-size:70px;line-height:125%;font-family:'Print Bold OT';letter-spacing:0px;word-spacing:0px;fill:#000000;fill-opacity:1;stroke:#000000;stroke-width:1px;stroke-linecap:butt;stroke-linejoin:miter;stroke-opacity:1;-inkscape-font-specification:'Print Bold OT';font-stretch:normal;font-variant:normal;"
       x="1224.3049"
       y="842.25049"
       id="text10097"
       sodipodi:linespacing="125%"
       inkscape:export-filename="/home/callum/source_working/heygo/labels/grapefruitst.png"
       inkscape:export-xdpi="196"
       inkscape:export-ydpi="196"><tspan
         sodipodi:role="line"
         id="tspan10099"
         x="1224.3049"
         y="842.25049">Grapefruits</tspan></text>
  </g>
</svg>
